[{
    "thumb": "/data/playlists/playlist-1.jpg",
    "genre": "Rock",
    "title": "Modern Rock Music"
}, {
    "thumb": "/data/playlists/playlist-2.jpg",
    "genre": "Hip Hop",
    "title": "Hard Metal Playlist"
}, {
    "thumb": "/data/playlists/playlist-3.jpg",
    "genre": "Rap",
    "title": "Love Songs Playlist"
}, {
    "thumb": "/data/playlists/playlist-4.jpg",
    "genre": "Physician",
    "title": "Instrumental"
}, {
    "thumb": "/data/playlists/playlist-5.jpg",
    "genre": "Ambient",
    "title": "Only Three"
}, {
    "thumb": "/data/playlists/playlist-6.jpg",
    "genre": "Rock",
    "title": "Classical"
}, {
    "thumb": "/data/playlists/playlist-7.jpg",
    "genre": "Hip Hop",
    "title": "Rocking Playlist"
}, {
    "thumb": "/data/playlists/playlist-8.jpg",
    "genre": "Metal",
    "title": "Event Playlist"
}, {
    "thumb": "/data/playlists/playlist-9.jpg",
    "genre": "Hip Hop",
    "title": "Lost in the song"
},{
    "thumb": "/data/playlists/playlist-1.jpg",
    "genre": "Rock",
    "title": "Modern Rock Music"
}, {
    "thumb": "/data/playlists/playlist-2.jpg",
    "genre": "Hip Hop",
    "title": "Hard Metal Playlist"
}, {
    "thumb": "/data/playlists/playlist-3.jpg",
    "genre": "Rap",
    "title": "Love Songs Playlist"
}, {
    "thumb": "/data/playlists/playlist-4.jpg",
    "genre": "Physician",
    "title": "Instrumental"
}, {
    "thumb": "/data/playlists/playlist-5.jpg",
    "genre": "Ambient",
    "title": "Only Three"
}, {
    "thumb": "/data/playlists/playlist-6.jpg",
    "genre": "Rock",
    "title": "Classical"
}, {
    "thumb": "/data/playlists/playlist-7.jpg",
    "genre": "Hip Hop",
    "title": "Rocking Playlist"
}, {
    "thumb": "/data/playlists/playlist-8.jpg",
    "genre": "Metal",
    "title": "Event Playlist"
}, {
    "thumb": "/data/playlists/playlist-9.jpg",
    "genre": "Hip Hop",
    "title": "Lost in the song"
},{
    "thumb": "/data/playlists/playlist-1.jpg",
    "genre": "Rock",
    "title": "Modern Rock Music"
}, {
    "thumb": "/data/playlists/playlist-2.jpg",
    "genre": "Hip Hop",
    "title": "Hard Metal Playlist"
}, {
    "thumb": "/data/playlists/playlist-3.jpg",
    "genre": "Rap",
    "title": "Love Songs Playlist"
}, {
    "thumb": "/data/playlists/playlist-4.jpg",
    "genre": "Physician",
    "title": "Instrumental"
}, {
    "thumb": "/data/playlists/playlist-5.jpg",
    "genre": "Ambient",
    "title": "Only Three"
}, {
    "thumb": "/data/playlists/playlist-6.jpg",
    "genre": "Rock",
    "title": "Classical"
}, {
    "thumb": "/data/playlists/playlist-7.jpg",
    "genre": "Hip Hop",
    "title": "Rocking Playlist"
}, {
    "thumb": "/data/playlists/playlist-8.jpg",
    "genre": "Metal",
    "title": "Event Playlist"
}, {
    "thumb": "/data/playlists/playlist-9.jpg",
    "genre": "Hip Hop",
    "title": "Lost in the song"
},{
    "thumb": "/data/playlists/playlist-1.jpg",
    "genre": "Rock",
    "title": "Modern Rock Music"
}, {
    "thumb": "/data/playlists/playlist-2.jpg",
    "genre": "Hip Hop",
    "title": "Hard Metal Playlist"
}, {
    "thumb": "/data/playlists/playlist-3.jpg",
    "genre": "Rap",
    "title": "Love Songs Playlist"
}, {
    "thumb": "/data/playlists/playlist-4.jpg",
    "genre": "Physician",
    "title": "Instrumental"
}, {
    "thumb": "/data/playlists/playlist-5.jpg",
    "genre": "Ambient",
    "title": "Only Three"
}, {
    "thumb": "/data/playlists/playlist-6.jpg",
    "genre": "Rock",
    "title": "Classical"
}, {
    "thumb": "/data/playlists/playlist-7.jpg",
    "genre": "Hip Hop",
    "title": "Rocking Playlist"
}, {
    "thumb": "/data/playlists/playlist-8.jpg",
    "genre": "Metal",
    "title": "Event Playlist"
}, {
    "thumb": "/data/playlists/playlist-9.jpg",
    "genre": "Hip Hop",
    "title": "Lost in the song"
}]
