[{
    "thumb": "/data/soc-media/media-1.jpg",
    "type": "Video",
    "title": "Modern Rock Music"
}, {
    "thumb": "/data/soc-media/media-2.jpg",
    "type": "Audio",
    "title": "Hard Metal Album"
}, {
    "thumb": "/data/soc-media/media-3.jpg",
    "type": "Image",
    "title": "Love Songs Album"
}, {
    "thumb": "/data/soc-media/media-4.jpg",
    "type": "Image",
    "title": "Instrumental Album"
}, {
    "thumb": "/data/soc-media/media-5.jpg",
    "type": "Video",
    "title": "Made for you"
}, {
    "thumb": "/data/soc-media/media-6.jpg",
    "type": "Audio",
    "title": "Kiss the sky"
}, {
    "thumb": "/data/soc-media/media-7.jpg",
    "type": "Image",
    "title": "In the Depths"
}, {
    "thumb": "/data/soc-media/media-8.jpg",
    "type": "Image",
    "title": "Volcano"
}, {
    "thumb": "/data/soc-media/media-9.jpg",
    "type": "Jingle",
    "title": "Juicy touch"
},{
    "thumb": "/data/soc-media/media-1.jpg",
    "type": "Video",
    "title": "Modern Rock Music"
}, {
    "thumb": "/data/soc-media/media-2.jpg",
    "type": "Audio",
    "title": "Hard Metal Album"
}, {
    "thumb": "/data/soc-media/media-3.jpg",
    "type": "Image",
    "title": "Love Songs Album"
}, {
    "thumb": "/data/soc-media/media-4.jpg",
    "type": "Image",
    "title": "Instrumental Album"
}, {
    "thumb": "/data/soc-media/media-5.jpg",
    "type": "Video",
    "title": "Made for you"
}, {
    "thumb": "/data/soc-media/media-6.jpg",
    "type": "Audio",
    "title": "Kiss the sky"
}, {
    "thumb": "/data/soc-media/media-7.jpg",
    "type": "Image",
    "title": "In the Depths"
}, {
    "thumb": "/data/soc-media/media-8.jpg",
    "type": "Image",
    "title": "Volcano"
}, {
    "thumb": "/data/soc-media/media-9.jpg",
    "type": "Jingle",
    "title": "Juicy touch"
},{
    "thumb": "/data/soc-media/media-1.jpg",
    "type": "Video",
    "title": "Modern Rock Music"
}, {
    "thumb": "/data/soc-media/media-2.jpg",
    "type": "Audio",
    "title": "Hard Metal Album"
}, {
    "thumb": "/data/soc-media/media-3.jpg",
    "type": "Image",
    "title": "Love Songs Album"
}, {
    "thumb": "/data/soc-media/media-4.jpg",
    "type": "Image",
    "title": "Instrumental Album"
}, {
    "thumb": "/data/soc-media/media-5.jpg",
    "type": "Video",
    "title": "Made for you"
}, {
    "thumb": "/data/soc-media/media-6.jpg",
    "type": "Audio",
    "title": "Kiss the sky"
}, {
    "thumb": "/data/soc-media/media-7.jpg",
    "type": "Image",
    "title": "In the Depths"
}, {
    "thumb": "/data/soc-media/media-8.jpg",
    "type": "Image",
    "title": "Volcano"
}, {
    "thumb": "/data/soc-media/media-9.jpg",
    "type": "Jingle",
    "title": "Juicy touch"
},{
    "thumb": "/data/soc-media/media-1.jpg",
    "type": "Video",
    "title": "Modern Rock Music"
}, {
    "thumb": "/data/soc-media/media-2.jpg",
    "type": "Audio",
    "title": "Hard Metal Album"
}, {
    "thumb": "/data/soc-media/media-3.jpg",
    "type": "Image",
    "title": "Love Songs Album"
}, {
    "thumb": "/data/soc-media/media-4.jpg",
    "type": "Image",
    "title": "Instrumental Album"
}, {
    "thumb": "/data/soc-media/media-5.jpg",
    "type": "Video",
    "title": "Made for you"
}, {
    "thumb": "/data/soc-media/media-6.jpg",
    "type": "Audio",
    "title": "Kiss the sky"
}, {
    "thumb": "/data/soc-media/media-7.jpg",
    "type": "Image",
    "title": "In the Depths"
}, {
    "thumb": "/data/soc-media/media-8.jpg",
    "type": "Image",
    "title": "Volcano"
}, {
    "thumb": "/data/soc-media/media-9.jpg",
    "type": "Jingle",
    "title": "Juicy touch"
}]
